@startuml

title __CONTROLLER's Class Diagram__\n

  namespace fr.cnam.foad.nfa035.badges.gui {
    namespace controller {
      class fr.cnam.foad.nfa035.badges.gui.controller.AddBadgeDialogController {
          + delegateOnOk()
          + validateForm()
      }
    }
  }


  namespace fr.cnam.foad.nfa035.badges.gui {
    namespace controller {
      class fr.cnam.foad.nfa035.badges.gui.controller.BadgeWalletController {
          + delegateUIComponentsCreation()
          + delegateUIManagedFieldsCreation()
          + loadBadge()
          + setAddedBadge()
      }
    }
  }


  fr.cnam.foad.nfa035.badges.gui.controller.AddBadgeDialogController o-- fr.cnam.foad.nfa035.badges.wallet.dao.DirectAccessBadgeWalletDAO : dao
  fr.cnam.foad.nfa035.badges.gui.controller.AddBadgeDialogController o-- fr.cnam.foad.nfa035.badges.gui.view.DisplayedBadgeHolder : displayedBadgeHolder
  fr.cnam.foad.nfa035.badges.gui.controller.BadgeWalletController o-- fr.cnam.foad.nfa035.badges.gui.components.BadgesPanelFactory : badgesPanelFactory
  fr.cnam.foad.nfa035.badges.gui.controller.BadgeWalletController o-- fr.cnam.foad.nfa035.badges.wallet.dao.DirectAccessBadgeWalletDAO : dao
  fr.cnam.foad.nfa035.badges.gui.controller.BadgeWalletController o-- fr.cnam.foad.nfa035.badges.gui.view.DisplayedBadgeHolder : displayedBadgeHolder


@enduml